{
    "page": 1,
    "limit": 10,
    "explicit": false,
    "total": 1000,
    "has_more": true,
    "list": [
        {
            "id": "x14oag",
            "title": "Peacemaker",
            "channel": "creation",
            "owner": "x2daen"
        },
        {
            "id": "x861vf4",
            "title": "Peacemaker",
            "channel": "tv",
            "owner": "xkxg2c"
        },
        {
            "id": "x4bdny",
            "title": "Peacemaker",
            "channel": "shortfilms",
            "owner": "x6demm"
        },
        {
            "id": "x83l2mr",
            "title": "PEACEMAKER",
            "channel": "news",
            "owner": "x1ht2is"
        },
        {
            "id": "x7i7eo",
            "title": "Peacemaker",
            "channel": "music",
            "owner": "xdgtpe"
        },
        {
            "id": "x877s6f",
            "title": "Peacemaker s01 - Peacemaker Is Better Than...",
            "channel": "tv",
            "owner": "x2gtbk3"
        },
        {
            "id": "x872omy",
            "title": "Peacemaker Review | Peacemaker Season 1 Review | Peacemaker HBO MAX | John Cena",
            "channel": "shortfilms",
            "owner": "x2m8jrb"
        },
        {
            "id": "x185z59",
            "title": "\u00b0\u00b0\u00b0The Peacemaker \u00b0\u00b0\u00b0",
            "channel": "music",
            "owner": "xztn4m"
        },
        {
            "id": "x87jnm5",
            "title": "Peacemaker Behind the scenes - Peacemaker Intro",
            "channel": "tv",
            "owner": "x2gtbk3"
        },
        {
            "id": "x87o2de",
            "title": "Peacemaker - What Peacemaker Did To Rick Flag",
            "channel": "tv",
            "owner": "x2gtbk3"
        }
    ]
}